<?xml version="1.0" encoding="UTF-8"?>
<model modelUID="r:acb1f50d-1355-41b6-8353-00095a559537(mbeddr.arduino.core.actions)">
  <persistence version="8" />
  <language namespace="aee9cad2-acd4-4608-aef2-0004f6a1cdbd(jetbrains.mps.lang.actions)" />
  <devkit namespace="fbc25dd2-5da4-483a-8b19-70928e1b62d7(jetbrains.mps.devkit.general-purpose)" />
  <import index="koo2" modelUID="r:3c7790ca-a687-4dfa-a94e-7b5e9848d78c(mbeddr.arduino.core.structure)" version="25" />
</model>

